{
  "event": "UpdateVariant",
  "syncId": "WEBHOOK_FULL_TEST_1",
  "productId": "2f9d6b74-2963-42dd-b630-3117fb6f0e3c",
  "totalCount": 35,
  "pageNumber": 1,
  "recordPerPage": 5,
  "hasMore": true,
  "isLastPage": false,
  "data": [
    {
          "portalVariantId": 111900437,
          "variantId": "056702a4-f2ae-4def-af48-7952c1785e0f",
          "price": 78000,
          "comparePrice": 158000,
          "stock": 0,
          "productId": "2f9d6b74-2963-42dd-b630-3117fb6f0e3c",
          "title": "قاب City & Landmark (کدC1847)\r\nطرح: 2-نیویورک، مدل: iPhone 14promax",
          "attributes": [
            {
              "name": "طرح",
              "option": "2-نیویورک"
            },
            {
              "name": "مدل",
              "option": "iPhone 14promax"
            }
          ]
        },
        {
          "portalVariantId": 111900433,
          "variantId": "0f000cee-5970-41b2-a2ca-2306919a3aaa",
          "price": 78000,
          "comparePrice": 158000,
          "stock": 0,
          "productId": "2f9d6b74-2963-42dd-b630-3117fb6f0e3c",
          "title": "قاب City & Landmark (کدC1847)\r\nطرح: 1-تهران، مدل: iPhone 15promax",
          "attributes": [
            {
              "name": "طرح",
              "option": "1-تهران"
            },
            {
              "name": "مدل",
              "option": "iPhone 15promax"
            }
          ]
        },
        {
          "portalVariantId": 111900451,
          "variantId": "14682624-2269-4b4a-8f8f-4fad09510319",
          "price": 78000,
          "comparePrice": 158000,
          "stock": 0,
          "productId": "2f9d6b74-2963-42dd-b630-3117fb6f0e3c",
          "title": "قاب City & Landmark (کدC1847)\r\nطرح: 4-مون بلان، مدل: iPhone 14promax",
          "attributes": [
            {
              "name": "طرح",
              "option": "4-مون بلان"
            },
            {
              "name": "مدل",
              "option": "iPhone 14promax"
            }
          ]
        },
        {
          "portalVariantId": 111900435,
          "variantId": "151d780b-972c-4466-a74d-27b7f4eddbed",
          "price": 78000,
          "comparePrice": 158000,
          "stock": 0,
          "productId": "2f9d6b74-2963-42dd-b630-3117fb6f0e3c",
          "title": "قاب City & Landmark (کدC1847)\r\nطرح: 2-نیویورک، مدل: iPhone 13pro",
          "attributes": [
            {
              "name": "طرح",
              "option": "2-نیویورک"
            },
            {
              "name": "مدل",
              "option": "iPhone 13pro"
            }
          ]
        },
        {
          "portalVariantId": 111900461,
          "variantId": "172d9c24-26c8-4d41-9071-c5c3ae9e4d03",
          "price": 78000,
          "comparePrice": 158000,
          "stock": 29,
          "productId": "2f9d6b74-2963-42dd-b630-3117fb6f0e3c",
          "title": "قاب City & Landmark (کدC1847)\r\nطرح: 5-Kangringboqe(کوه مقدس)، مدل: iPhone 15promax",
          "attributes": [
            {
              "name": "طرح",
              "option": "5-Kangringboqe(کوه مقدس)"
            },
            {
              "name": "مدل",
              "option": "iPhone 15promax"
            }
          ]
        }
   ]
}